Problem Set 4
…
The projects and project_io tables have the project.num column in common. Use this column to perform a left_join and identify the most expensive project for each institute. Project institutes are in the projects table, whereas total project costs are available in the project_io table. Note you will have to use the arrange and slice verbs from dplyr.

projects %>% 
  select(project.num, institute) %>% 
  left_join(project_io) %>% 
  select(project.num, institute, total.cost) %>% 
  group_by(institute) %>% 
  arrange(desc(total.cost)) %>% 
  slice(1:1) %>% 
  arrange(desc(total.cost))

#> Joining, by = "project.num"

#> Source: local data frame [25 x 3]
#> Groups: institute [25]
#> 
#>    project.num institute total.cost
#>          <chr>    <fctr>      <dbl>
#> 1  ZIHLM200888        LM 1544981304
#> 2  ZIFBC000001        CA  652060692
#> 3  U54HG003067        HG  527942706
#> 4  ZIFAI000001        AI  389496063
#> 5  U01AG009740        AG  219008592
#> 6  U01DK061230        DK  199581387
#> 7  P51RR000166        RR  161140557
#> 8  ZIFHL000001        HL  151243202
#> 9  ZIFMH000001        MH  149352161
#> 10 U01HD052102        HD  147186026
#> # ... with 15 more rows
…
Problem 4

Calculate correlations between total.cost and n.pubs for each institute. You will need to join the projects and project_io tables to link institute with total.cost and n.pubs. You will then need to use group_by and do from dplyr and tidy from broom to calculate correlations.

projects %>%
  left_join(project_io) %>%
  select(institute, n.pubs, total.cost) %>%
  filter(!is.na(n.pubs), !is.na(total.cost)) %>%
  group_by(institute) %>%
  do(tidy(cor.test(.$n.pubs, .$total.cost)))

#> Joining, by = "project.num"

#> Source: local data frame [25 x 9]
#> Groups: institute [25]
#> 
#>    institute  estimate statistic p.value parameter  conf.low conf.high
#>       <fctr>     <dbl>     <dbl>   <dbl>     <int>     <dbl>     <dbl>
#> 1         AA 0.6623385 115.45642       0     17056 0.6538305 0.6706790
#> 2         AG 0.6113984 147.62050       0     36505 0.6049343 0.6177818
#> 3         AI 0.5102040 174.54288       0     86570 0.5052599 0.5151146
#> 4         AR 0.4897399  85.22133       0     23018 0.4798576 0.4994980
#> 5         AT 0.6334686  56.81426       0      4816 0.6162540 0.6500781
#> 6         CA 0.5147985 211.68016       0    124269 0.5107004 0.5188732
#> 7         DA 0.5437862 124.71231       0     37044 0.5365743 0.5509186
#> 8         DC 0.6954540 133.16016       0     18930 0.6880253 0.7027371
#> 9         DE 0.4731841  65.20438       0     14737 0.4605581 0.4856187
#> 10        DK 0.4101026 123.27261       0     75158 0.4041384 0.4160320
#> # ... with 15 more rows, and 2 more variables: method <fctr>,
#> #   alternative <fctr>
…
#> Joining, by = "project.num"
#> Joining, by = "project.num"

#> Joining, by = "pmid"

#> Source: local data frame [25 x 9]
#> Groups: institute [25]
#> 
#>    institute    estimate statistic       p.value parameter     conf.low
#>       <fctr>       <dbl>     <dbl>         <dbl>     <int>        <dbl>
#> 1         AA  0.04126527 24.682192 2.155333e-134    357156  0.037990830
#> 2         AG  0.01487706 17.567534  4.443221e-69   1394092  0.013217406
#> 3         AI  0.01583085 21.189359  1.231471e-99   1791094  0.014366684
#> 4         AR  0.04055562 29.027732 4.161571e-185    511457  0.037819245
#> 5         AT -0.03316985 -7.772965  7.799788e-15     54854 -0.041526633
#> 6         CA  0.01006831 24.007095 2.379278e-127   5684886  0.009246361
#> 7         DA  0.01186620 10.374909  3.237669e-25    764335  0.009624615
#> 8         DC  0.04007725 22.095625 4.240192e-108    303472  0.036524608
#> 9         DE  0.04532023 22.002545 3.495178e-107    235217  0.041286573
#> 10        DK  0.02719820 40.037916  0.000000e+00   2165415  0.025867222
#> # ... with 15 more rows, and 3 more variables: conf.high <dbl>,
#> #   method <fctr>, alternative <fctr>
…
